-- Merging decision tree log ---
manifest
ADDED from C:\Users\Sanyam Bansal\android_studios\SignBoard\app\src\main\AndroidManifest.xml:2:1-26:12
INJECTED from C:\Users\Sanyam Bansal\android_studios\SignBoard\app\src\main\AndroidManifest.xml:2:1-26:12
INJECTED from C:\Users\Sanyam Bansal\android_studios\SignBoard\app\src\main\AndroidManifest.xml:2:1-26:12
INJECTED from C:\Users\Sanyam Bansal\android_studios\SignBoard\app\src\main\AndroidManifest.xml:2:1-26:12
MERGED from [com.android.support.constraint:constraint-layout:1.1.3] C:\Users\Sanyam Bansal\.gradle\caches\transforms-1\files-1.1\constraint-layout-1.1.3.aar\eac7db23ab6cdb2b38d06cda4a32b778\AndroidManifest.xml:2:1-11:12
MERGED from [com.android.support:appcompat-v7:23.4.0] C:\Users\Sanyam Bansal\.gradle\caches\transforms-1\files-1.1\appcompat-v7-23.4.0.aar\d354082156e063ff1c43710c332eb87f\AndroidManifest.xml:17:1-27:12
MERGED from [com.android.support:animated-vector-drawable:23.4.0] C:\Users\Sanyam Bansal\.gradle\caches\transforms-1\files-1.1\animated-vector-drawable-23.4.0.aar\30934977bba3f5c6470ff007f08afe1c\AndroidManifest.xml:2:1-9:12
MERGED from [com.android.support:support-vector-drawable:23.4.0] C:\Users\Sanyam Bansal\.gradle\caches\transforms-1\files-1.1\support-vector-drawable-23.4.0.aar\99dd9a8fc77dc6f91e8dc607f4cfd950\AndroidManifest.xml:2:1-9:12
MERGED from [com.android.support:support-v4:23.4.0] C:\Users\Sanyam Bansal\.gradle\caches\transforms-1\files-1.1\support-v4-23.4.0.aar\aa353200bc5dfb8ef23501c0fe1f8748\AndroidManifest.xml:17:1-24:12
INJECTED from C:\Users\Sanyam Bansal\android_studios\SignBoard\app\src\main\AndroidManifest.xml:2:1-26:12
INJECTED from C:\Users\Sanyam Bansal\android_studios\SignBoard\app\src\main\AndroidManifest.xml:2:1-26:12
INJECTED from C:\Users\Sanyam Bansal\android_studios\SignBoard\app\src\main\AndroidManifest.xml:2:1-26:12
	package
		ADDED from C:\Users\Sanyam Bansal\android_studios\SignBoard\app\src\main\AndroidManifest.xml:3:5-36
		INJECTED from C:\Users\Sanyam Bansal\android_studios\SignBoard\app\src\main\AndroidManifest.xml
		INJECTED from C:\Users\Sanyam Bansal\android_studios\SignBoard\app\src\main\AndroidManifest.xml
	android:versionName
		INJECTED from C:\Users\Sanyam Bansal\android_studios\SignBoard\app\src\main\AndroidManifest.xml
		ADDED from C:\Users\Sanyam Bansal\android_studios\SignBoard\app\src\main\AndroidManifest.xml:2:1-26:12
		INJECTED from C:\Users\Sanyam Bansal\android_studios\SignBoard\app\src\main\AndroidManifest.xml
	android:versionCode
		INJECTED from C:\Users\Sanyam Bansal\android_studios\SignBoard\app\src\main\AndroidManifest.xml
		ADDED from C:\Users\Sanyam Bansal\android_studios\SignBoard\app\src\main\AndroidManifest.xml:2:1-26:12
		INJECTED from C:\Users\Sanyam Bansal\android_studios\SignBoard\app\src\main\AndroidManifest.xml
	xmlns:android
		ADDED from C:\Users\Sanyam Bansal\android_studios\SignBoard\app\src\main\AndroidManifest.xml:2:11-69
application
ADDED from C:\Users\Sanyam Bansal\android_studios\SignBoard\app\src\main\AndroidManifest.xml:5:5-24:19
MERGED from [com.android.support.constraint:constraint-layout:1.1.3] C:\Users\Sanyam Bansal\.gradle\caches\transforms-1\files-1.1\constraint-layout-1.1.3.aar\eac7db23ab6cdb2b38d06cda4a32b778\AndroidManifest.xml:9:5-20
MERGED from [com.android.support.constraint:constraint-layout:1.1.3] C:\Users\Sanyam Bansal\.gradle\caches\transforms-1\files-1.1\constraint-layout-1.1.3.aar\eac7db23ab6cdb2b38d06cda4a32b778\AndroidManifest.xml:9:5-20
MERGED from [com.android.support:appcompat-v7:23.4.0] C:\Users\Sanyam Bansal\.gradle\caches\transforms-1\files-1.1\appcompat-v7-23.4.0.aar\d354082156e063ff1c43710c332eb87f\AndroidManifest.xml:25:5-20
MERGED from [com.android.support:appcompat-v7:23.4.0] C:\Users\Sanyam Bansal\.gradle\caches\transforms-1\files-1.1\appcompat-v7-23.4.0.aar\d354082156e063ff1c43710c332eb87f\AndroidManifest.xml:25:5-20
MERGED from [com.android.support:animated-vector-drawable:23.4.0] C:\Users\Sanyam Bansal\.gradle\caches\transforms-1\files-1.1\animated-vector-drawable-23.4.0.aar\30934977bba3f5c6470ff007f08afe1c\AndroidManifest.xml:7:5-20
MERGED from [com.android.support:animated-vector-drawable:23.4.0] C:\Users\Sanyam Bansal\.gradle\caches\transforms-1\files-1.1\animated-vector-drawable-23.4.0.aar\30934977bba3f5c6470ff007f08afe1c\AndroidManifest.xml:7:5-20
MERGED from [com.android.support:support-vector-drawable:23.4.0] C:\Users\Sanyam Bansal\.gradle\caches\transforms-1\files-1.1\support-vector-drawable-23.4.0.aar\99dd9a8fc77dc6f91e8dc607f4cfd950\AndroidManifest.xml:7:5-20
MERGED from [com.android.support:support-vector-drawable:23.4.0] C:\Users\Sanyam Bansal\.gradle\caches\transforms-1\files-1.1\support-vector-drawable-23.4.0.aar\99dd9a8fc77dc6f91e8dc607f4cfd950\AndroidManifest.xml:7:5-20
MERGED from [com.android.support:support-v4:23.4.0] C:\Users\Sanyam Bansal\.gradle\caches\transforms-1\files-1.1\support-v4-23.4.0.aar\aa353200bc5dfb8ef23501c0fe1f8748\AndroidManifest.xml:22:5-20
MERGED from [com.android.support:support-v4:23.4.0] C:\Users\Sanyam Bansal\.gradle\caches\transforms-1\files-1.1\support-v4-23.4.0.aar\aa353200bc5dfb8ef23501c0fe1f8748\AndroidManifest.xml:22:5-20
	android:label
		ADDED from C:\Users\Sanyam Bansal\android_studios\SignBoard\app\src\main\AndroidManifest.xml:5:18-50
service#com.example.SignBoard.SoftKeyboard
ADDED from C:\Users\Sanyam Bansal\android_studios\SignBoard\app\src\main\AndroidManifest.xml:6:9-16:19
	android:permission
		ADDED from C:\Users\Sanyam Bansal\android_studios\SignBoard\app\src\main\AndroidManifest.xml:8:13-70
	android:name
		ADDED from C:\Users\Sanyam Bansal\android_studios\SignBoard\app\src\main\AndroidManifest.xml:7:13-62
intent-filter#action:name:android.view.InputMethod
ADDED from C:\Users\Sanyam Bansal\android_studios\SignBoard\app\src\main\AndroidManifest.xml:9:13-11:29
action#android.view.InputMethod
ADDED from C:\Users\Sanyam Bansal\android_studios\SignBoard\app\src\main\AndroidManifest.xml:10:17-67
	android:name
		ADDED from C:\Users\Sanyam Bansal\android_studios\SignBoard\app\src\main\AndroidManifest.xml:10:25-64
meta-data#android.view.im
ADDED from C:\Users\Sanyam Bansal\android_studios\SignBoard\app\src\main\AndroidManifest.xml:13:13-15:50
	android:resource
		ADDED from C:\Users\Sanyam Bansal\android_studios\SignBoard\app\src\main\AndroidManifest.xml:15:17-47
	android:name
		ADDED from C:\Users\Sanyam Bansal\android_studios\SignBoard\app\src\main\AndroidManifest.xml:14:17-47
activity#com.example.SignBoard.MainActivity
ADDED from C:\Users\Sanyam Bansal\android_studios\SignBoard\app\src\main\AndroidManifest.xml:17:9-23:20
	android:name
		ADDED from C:\Users\Sanyam Bansal\android_studios\SignBoard\app\src\main\AndroidManifest.xml:17:19-68
intent-filter#action:name:android.intent.action.MAIN+category:name:android.intent.category.LAUNCHER
ADDED from C:\Users\Sanyam Bansal\android_studios\SignBoard\app\src\main\AndroidManifest.xml:18:13-22:29
action#android.intent.action.MAIN
ADDED from C:\Users\Sanyam Bansal\android_studios\SignBoard\app\src\main\AndroidManifest.xml:19:17-69
	android:name
		ADDED from C:\Users\Sanyam Bansal\android_studios\SignBoard\app\src\main\AndroidManifest.xml:19:25-66
category#android.intent.category.LAUNCHER
ADDED from C:\Users\Sanyam Bansal\android_studios\SignBoard\app\src\main\AndroidManifest.xml:21:17-77
	android:name
		ADDED from C:\Users\Sanyam Bansal\android_studios\SignBoard\app\src\main\AndroidManifest.xml:21:27-74
uses-sdk
INJECTED from C:\Users\Sanyam Bansal\android_studios\SignBoard\app\src\main\AndroidManifest.xml reason: use-sdk injection requested
INJECTED from C:\Users\Sanyam Bansal\android_studios\SignBoard\app\src\main\AndroidManifest.xml
INJECTED from C:\Users\Sanyam Bansal\android_studios\SignBoard\app\src\main\AndroidManifest.xml
MERGED from [com.android.support.constraint:constraint-layout:1.1.3] C:\Users\Sanyam Bansal\.gradle\caches\transforms-1\files-1.1\constraint-layout-1.1.3.aar\eac7db23ab6cdb2b38d06cda4a32b778\AndroidManifest.xml:5:5-7:41
MERGED from [com.android.support.constraint:constraint-layout:1.1.3] C:\Users\Sanyam Bansal\.gradle\caches\transforms-1\files-1.1\constraint-layout-1.1.3.aar\eac7db23ab6cdb2b38d06cda4a32b778\AndroidManifest.xml:5:5-7:41
MERGED from [com.android.support:appcompat-v7:23.4.0] C:\Users\Sanyam Bansal\.gradle\caches\transforms-1\files-1.1\appcompat-v7-23.4.0.aar\d354082156e063ff1c43710c332eb87f\AndroidManifest.xml:21:5-23:78
MERGED from [com.android.support:appcompat-v7:23.4.0] C:\Users\Sanyam Bansal\.gradle\caches\transforms-1\files-1.1\appcompat-v7-23.4.0.aar\d354082156e063ff1c43710c332eb87f\AndroidManifest.xml:21:5-23:78
MERGED from [com.android.support:animated-vector-drawable:23.4.0] C:\Users\Sanyam Bansal\.gradle\caches\transforms-1\files-1.1\animated-vector-drawable-23.4.0.aar\30934977bba3f5c6470ff007f08afe1c\AndroidManifest.xml:5:5-44
MERGED from [com.android.support:animated-vector-drawable:23.4.0] C:\Users\Sanyam Bansal\.gradle\caches\transforms-1\files-1.1\animated-vector-drawable-23.4.0.aar\30934977bba3f5c6470ff007f08afe1c\AndroidManifest.xml:5:5-44
MERGED from [com.android.support:support-vector-drawable:23.4.0] C:\Users\Sanyam Bansal\.gradle\caches\transforms-1\files-1.1\support-vector-drawable-23.4.0.aar\99dd9a8fc77dc6f91e8dc607f4cfd950\AndroidManifest.xml:5:5-43
MERGED from [com.android.support:support-vector-drawable:23.4.0] C:\Users\Sanyam Bansal\.gradle\caches\transforms-1\files-1.1\support-vector-drawable-23.4.0.aar\99dd9a8fc77dc6f91e8dc607f4cfd950\AndroidManifest.xml:5:5-43
MERGED from [com.android.support:support-v4:23.4.0] C:\Users\Sanyam Bansal\.gradle\caches\transforms-1\files-1.1\support-v4-23.4.0.aar\aa353200bc5dfb8ef23501c0fe1f8748\AndroidManifest.xml:20:5-43
MERGED from [com.android.support:support-v4:23.4.0] C:\Users\Sanyam Bansal\.gradle\caches\transforms-1\files-1.1\support-v4-23.4.0.aar\aa353200bc5dfb8ef23501c0fe1f8748\AndroidManifest.xml:20:5-43
INJECTED from C:\Users\Sanyam Bansal\android_studios\SignBoard\app\src\main\AndroidManifest.xml
INJECTED from C:\Users\Sanyam Bansal\android_studios\SignBoard\app\src\main\AndroidManifest.xml
	tools:overrideLibrary
		ADDED from [com.android.support:appcompat-v7:23.4.0] C:\Users\Sanyam Bansal\.gradle\caches\transforms-1\files-1.1\appcompat-v7-23.4.0.aar\d354082156e063ff1c43710c332eb87f\AndroidManifest.xml:23:9-75
	android:targetSdkVersion
		INJECTED from C:\Users\Sanyam Bansal\android_studios\SignBoard\app\src\main\AndroidManifest.xml
		ADDED from C:\Users\Sanyam Bansal\android_studios\SignBoard\app\src\main\AndroidManifest.xml
		INJECTED from C:\Users\Sanyam Bansal\android_studios\SignBoard\app\src\main\AndroidManifest.xml
	android:minSdkVersion
		INJECTED from C:\Users\Sanyam Bansal\android_studios\SignBoard\app\src\main\AndroidManifest.xml
		ADDED from C:\Users\Sanyam Bansal\android_studios\SignBoard\app\src\main\AndroidManifest.xml
		INJECTED from C:\Users\Sanyam Bansal\android_studios\SignBoard\app\src\main\AndroidManifest.xml
