-- Merging decision tree log ---
manifest
ADDED from C:\Users\Mvrpk\Desktop\UnityToAndroidd\HomePageTrial4\HomePageTrial4\src\main\AndroidManifest.xml:2:1-29:12
INJECTED from C:\Users\Mvrpk\Desktop\UnityToAndroidd\HomePageTrial4\HomePageTrial4\src\main\AndroidManifest.xml:2:1-29:12
INJECTED from C:\Users\Mvrpk\Desktop\UnityToAndroidd\HomePageTrial4\HomePageTrial4\src\main\AndroidManifest.xml:2:1-29:12
INJECTED from C:\Users\Mvrpk\Desktop\UnityToAndroidd\HomePageTrial4\HomePageTrial4\src\main\AndroidManifest.xml:2:1-29:12
INJECTED from C:\Users\Mvrpk\Desktop\UnityToAndroidd\HomePageTrial4\HomePageTrial4\src\main\AndroidManifest.xml:2:1-29:12
INJECTED from C:\Users\Mvrpk\Desktop\UnityToAndroidd\HomePageTrial4\HomePageTrial4\src\main\AndroidManifest.xml:2:1-29:12
INJECTED from C:\Users\Mvrpk\Desktop\UnityToAndroidd\HomePageTrial4\HomePageTrial4\src\main\AndroidManifest.xml:2:1-29:12
	package
		ADDED from C:\Users\Mvrpk\Desktop\UnityToAndroidd\HomePageTrial4\HomePageTrial4\src\main\AndroidManifest.xml:2:70-101
		INJECTED from C:\Users\Mvrpk\Desktop\UnityToAndroidd\HomePageTrial4\HomePageTrial4\src\main\AndroidManifest.xml
		INJECTED from C:\Users\Mvrpk\Desktop\UnityToAndroidd\HomePageTrial4\HomePageTrial4\src\main\AndroidManifest.xml
	android:versionName
		INJECTED from C:\Users\Mvrpk\Desktop\UnityToAndroidd\HomePageTrial4\HomePageTrial4\src\main\AndroidManifest.xml
		ADDED from C:\Users\Mvrpk\Desktop\UnityToAndroidd\HomePageTrial4\HomePageTrial4\src\main\AndroidManifest.xml:2:1-29:12
		INJECTED from C:\Users\Mvrpk\Desktop\UnityToAndroidd\HomePageTrial4\HomePageTrial4\src\main\AndroidManifest.xml
	xmlns:tools
		ADDED from C:\Users\Mvrpk\Desktop\UnityToAndroidd\HomePageTrial4\HomePageTrial4\src\main\AndroidManifest.xml:2:102-148
	android:versionCode
		INJECTED from C:\Users\Mvrpk\Desktop\UnityToAndroidd\HomePageTrial4\HomePageTrial4\src\main\AndroidManifest.xml
		ADDED from C:\Users\Mvrpk\Desktop\UnityToAndroidd\HomePageTrial4\HomePageTrial4\src\main\AndroidManifest.xml:2:1-29:12
		INJECTED from C:\Users\Mvrpk\Desktop\UnityToAndroidd\HomePageTrial4\HomePageTrial4\src\main\AndroidManifest.xml
	xmlns:android
		ADDED from C:\Users\Mvrpk\Desktop\UnityToAndroidd\HomePageTrial4\HomePageTrial4\src\main\AndroidManifest.xml:2:11-69
	android:installLocation
		ADDED from C:\Users\Mvrpk\Desktop\UnityToAndroidd\HomePageTrial4\HomePageTrial4\src\main\AndroidManifest.xml:2:149-189
supports-screens
ADDED from C:\Users\Mvrpk\Desktop\UnityToAndroidd\HomePageTrial4\HomePageTrial4\src\main\AndroidManifest.xml:3:3-163
	android:largeScreens
		ADDED from C:\Users\Mvrpk\Desktop\UnityToAndroidd\HomePageTrial4\HomePageTrial4\src\main\AndroidManifest.xml:3:78-105
	android:smallScreens
		ADDED from C:\Users\Mvrpk\Desktop\UnityToAndroidd\HomePageTrial4\HomePageTrial4\src\main\AndroidManifest.xml:3:21-48
	android:normalScreens
		ADDED from C:\Users\Mvrpk\Desktop\UnityToAndroidd\HomePageTrial4\HomePageTrial4\src\main\AndroidManifest.xml:3:49-77
	android:xlargeScreens
		ADDED from C:\Users\Mvrpk\Desktop\UnityToAndroidd\HomePageTrial4\HomePageTrial4\src\main\AndroidManifest.xml:3:106-134
	android:anyDensity
		ADDED from C:\Users\Mvrpk\Desktop\UnityToAndroidd\HomePageTrial4\HomePageTrial4\src\main\AndroidManifest.xml:3:135-160
application
ADDED from C:\Users\Mvrpk\Desktop\UnityToAndroidd\HomePageTrial4\HomePageTrial4\src\main\AndroidManifest.xml:4:3-16:17
	android:label
		ADDED from C:\Users\Mvrpk\Desktop\UnityToAndroidd\HomePageTrial4\HomePageTrial4\src\main\AndroidManifest.xml:4:90-122
	android:icon
		ADDED from C:\Users\Mvrpk\Desktop\UnityToAndroidd\HomePageTrial4\HomePageTrial4\src\main\AndroidManifest.xml:4:58-89
	android:banner
		ADDED from C:\Users\Mvrpk\Desktop\UnityToAndroidd\HomePageTrial4\HomePageTrial4\src\main\AndroidManifest.xml:4:145-182
	android:theme
		ADDED from C:\Users\Mvrpk\Desktop\UnityToAndroidd\HomePageTrial4\HomePageTrial4\src\main\AndroidManifest.xml:4:16-57
	android:isGame
		ADDED from C:\Users\Mvrpk\Desktop\UnityToAndroidd\HomePageTrial4\HomePageTrial4\src\main\AndroidManifest.xml:4:123-144
activity#com.Omkar.ProductName.UnityPlayerActivity
ADDED from C:\Users\Mvrpk\Desktop\UnityToAndroidd\HomePageTrial4\HomePageTrial4\src\main\AndroidManifest.xml:5:5-12:16
	android:screenOrientation
		ADDED from C:\Users\Mvrpk\Desktop\UnityToAndroidd\HomePageTrial4\HomePageTrial4\src\main\AndroidManifest.xml:5:48-86
	android:label
		ADDED from C:\Users\Mvrpk\Desktop\UnityToAndroidd\HomePageTrial4\HomePageTrial4\src\main\AndroidManifest.xml:5:15-47
	android:launchMode
		ADDED from C:\Users\Mvrpk\Desktop\UnityToAndroidd\HomePageTrial4\HomePageTrial4\src\main\AndroidManifest.xml:5:87-118
	android:hardwareAccelerated
		ADDED from C:\Users\Mvrpk\Desktop\UnityToAndroidd\HomePageTrial4\HomePageTrial4\src\main\AndroidManifest.xml:5:301-336
	android:configChanges
		ADDED from C:\Users\Mvrpk\Desktop\UnityToAndroidd\HomePageTrial4\HomePageTrial4\src\main\AndroidManifest.xml:5:119-300
	android:name
		ADDED from C:\Users\Mvrpk\Desktop\UnityToAndroidd\HomePageTrial4\HomePageTrial4\src\main\AndroidManifest.xml:5:337-393
intent-filter#action:name:android.intent.action.MAIN+category:name:android.intent.category.LAUNCHER+category:name:android.intent.category.LEANBACK_LAUNCHER
ADDED from C:\Users\Mvrpk\Desktop\UnityToAndroidd\HomePageTrial4\HomePageTrial4\src\main\AndroidManifest.xml:6:7-10:23
action#android.intent.action.MAIN
ADDED from C:\Users\Mvrpk\Desktop\UnityToAndroidd\HomePageTrial4\HomePageTrial4\src\main\AndroidManifest.xml:7:9-61
	android:name
		ADDED from C:\Users\Mvrpk\Desktop\UnityToAndroidd\HomePageTrial4\HomePageTrial4\src\main\AndroidManifest.xml:7:17-58
category#android.intent.category.LAUNCHER
ADDED from C:\Users\Mvrpk\Desktop\UnityToAndroidd\HomePageTrial4\HomePageTrial4\src\main\AndroidManifest.xml:8:9-69
	android:name
		ADDED from C:\Users\Mvrpk\Desktop\UnityToAndroidd\HomePageTrial4\HomePageTrial4\src\main\AndroidManifest.xml:8:19-66
category#android.intent.category.LEANBACK_LAUNCHER
ADDED from C:\Users\Mvrpk\Desktop\UnityToAndroidd\HomePageTrial4\HomePageTrial4\src\main\AndroidManifest.xml:9:9-78
	android:name
		ADDED from C:\Users\Mvrpk\Desktop\UnityToAndroidd\HomePageTrial4\HomePageTrial4\src\main\AndroidManifest.xml:9:19-75
meta-data#unityplayer.UnityActivity
ADDED from C:\Users\Mvrpk\Desktop\UnityToAndroidd\HomePageTrial4\HomePageTrial4\src\main\AndroidManifest.xml:11:7-82
	android:value
		ADDED from C:\Users\Mvrpk\Desktop\UnityToAndroidd\HomePageTrial4\HomePageTrial4\src\main\AndroidManifest.xml:11:59-79
	android:name
		ADDED from C:\Users\Mvrpk\Desktop\UnityToAndroidd\HomePageTrial4\HomePageTrial4\src\main\AndroidManifest.xml:11:18-58
meta-data#unity.build-id
ADDED from C:\Users\Mvrpk\Desktop\UnityToAndroidd\HomePageTrial4\HomePageTrial4\src\main\AndroidManifest.xml:13:5-101
	android:value
		ADDED from C:\Users\Mvrpk\Desktop\UnityToAndroidd\HomePageTrial4\HomePageTrial4\src\main\AndroidManifest.xml:13:46-98
	android:name
		ADDED from C:\Users\Mvrpk\Desktop\UnityToAndroidd\HomePageTrial4\HomePageTrial4\src\main\AndroidManifest.xml:13:16-45
meta-data#unity.splash-mode
ADDED from C:\Users\Mvrpk\Desktop\UnityToAndroidd\HomePageTrial4\HomePageTrial4\src\main\AndroidManifest.xml:14:5-69
	android:value
		ADDED from C:\Users\Mvrpk\Desktop\UnityToAndroidd\HomePageTrial4\HomePageTrial4\src\main\AndroidManifest.xml:14:49-66
	android:name
		ADDED from C:\Users\Mvrpk\Desktop\UnityToAndroidd\HomePageTrial4\HomePageTrial4\src\main\AndroidManifest.xml:14:16-48
meta-data#unity.splash-enable
ADDED from C:\Users\Mvrpk\Desktop\UnityToAndroidd\HomePageTrial4\HomePageTrial4\src\main\AndroidManifest.xml:15:5-74
	android:value
		ADDED from C:\Users\Mvrpk\Desktop\UnityToAndroidd\HomePageTrial4\HomePageTrial4\src\main\AndroidManifest.xml:15:51-71
	android:name
		ADDED from C:\Users\Mvrpk\Desktop\UnityToAndroidd\HomePageTrial4\HomePageTrial4\src\main\AndroidManifest.xml:15:16-50
uses-feature#0x00020000
ADDED from C:\Users\Mvrpk\Desktop\UnityToAndroidd\HomePageTrial4\HomePageTrial4\src\main\AndroidManifest.xml:17:3-52
	android:glEsVersion
		ADDED from C:\Users\Mvrpk\Desktop\UnityToAndroidd\HomePageTrial4\HomePageTrial4\src\main\AndroidManifest.xml:17:17-49
uses-permission#android.permission.INTERNET
ADDED from C:\Users\Mvrpk\Desktop\UnityToAndroidd\HomePageTrial4\HomePageTrial4\src\main\AndroidManifest.xml:18:3-65
	android:name
		ADDED from C:\Users\Mvrpk\Desktop\UnityToAndroidd\HomePageTrial4\HomePageTrial4\src\main\AndroidManifest.xml:18:20-62
uses-permission#android.permission.CAMERA
ADDED from C:\Users\Mvrpk\Desktop\UnityToAndroidd\HomePageTrial4\HomePageTrial4\src\main\AndroidManifest.xml:19:3-63
	android:name
		ADDED from C:\Users\Mvrpk\Desktop\UnityToAndroidd\HomePageTrial4\HomePageTrial4\src\main\AndroidManifest.xml:19:20-60
uses-feature#android.hardware.camera
ADDED from C:\Users\Mvrpk\Desktop\UnityToAndroidd\HomePageTrial4\HomePageTrial4\src\main\AndroidManifest.xml:20:3-83
	android:required
		ADDED from C:\Users\Mvrpk\Desktop\UnityToAndroidd\HomePageTrial4\HomePageTrial4\src\main\AndroidManifest.xml:20:56-80
	android:name
		ADDED from C:\Users\Mvrpk\Desktop\UnityToAndroidd\HomePageTrial4\HomePageTrial4\src\main\AndroidManifest.xml:20:17-55
uses-feature#android.hardware.camera.autofocus
ADDED from C:\Users\Mvrpk\Desktop\UnityToAndroidd\HomePageTrial4\HomePageTrial4\src\main\AndroidManifest.xml:21:3-93
	android:required
		ADDED from C:\Users\Mvrpk\Desktop\UnityToAndroidd\HomePageTrial4\HomePageTrial4\src\main\AndroidManifest.xml:21:66-90
	android:name
		ADDED from C:\Users\Mvrpk\Desktop\UnityToAndroidd\HomePageTrial4\HomePageTrial4\src\main\AndroidManifest.xml:21:17-65
uses-feature#android.hardware.camera.front
ADDED from C:\Users\Mvrpk\Desktop\UnityToAndroidd\HomePageTrial4\HomePageTrial4\src\main\AndroidManifest.xml:22:3-89
	android:required
		ADDED from C:\Users\Mvrpk\Desktop\UnityToAndroidd\HomePageTrial4\HomePageTrial4\src\main\AndroidManifest.xml:22:62-86
	android:name
		ADDED from C:\Users\Mvrpk\Desktop\UnityToAndroidd\HomePageTrial4\HomePageTrial4\src\main\AndroidManifest.xml:22:17-61
uses-permission#android.permission.WRITE_EXTERNAL_STORAGE
ADDED from C:\Users\Mvrpk\Desktop\UnityToAndroidd\HomePageTrial4\HomePageTrial4\src\main\AndroidManifest.xml:23:3-106
	android:maxSdkVersion
		ADDED from C:\Users\Mvrpk\Desktop\UnityToAndroidd\HomePageTrial4\HomePageTrial4\src\main\AndroidManifest.xml:23:77-103
	android:name
		ADDED from C:\Users\Mvrpk\Desktop\UnityToAndroidd\HomePageTrial4\HomePageTrial4\src\main\AndroidManifest.xml:23:20-76
uses-permission#android.permission.READ_EXTERNAL_STORAGE
ADDED from C:\Users\Mvrpk\Desktop\UnityToAndroidd\HomePageTrial4\HomePageTrial4\src\main\AndroidManifest.xml:24:3-105
	android:maxSdkVersion
		ADDED from C:\Users\Mvrpk\Desktop\UnityToAndroidd\HomePageTrial4\HomePageTrial4\src\main\AndroidManifest.xml:24:76-102
	android:name
		ADDED from C:\Users\Mvrpk\Desktop\UnityToAndroidd\HomePageTrial4\HomePageTrial4\src\main\AndroidManifest.xml:24:20-75
uses-feature#android.hardware.sensor.accelerometer
ADDED from C:\Users\Mvrpk\Desktop\UnityToAndroidd\HomePageTrial4\HomePageTrial4\src\main\AndroidManifest.xml:25:3-97
	android:required
		ADDED from C:\Users\Mvrpk\Desktop\UnityToAndroidd\HomePageTrial4\HomePageTrial4\src\main\AndroidManifest.xml:25:70-94
	android:name
		ADDED from C:\Users\Mvrpk\Desktop\UnityToAndroidd\HomePageTrial4\HomePageTrial4\src\main\AndroidManifest.xml:25:17-69
uses-feature#android.hardware.touchscreen
ADDED from C:\Users\Mvrpk\Desktop\UnityToAndroidd\HomePageTrial4\HomePageTrial4\src\main\AndroidManifest.xml:26:3-88
	android:required
		ADDED from C:\Users\Mvrpk\Desktop\UnityToAndroidd\HomePageTrial4\HomePageTrial4\src\main\AndroidManifest.xml:26:61-85
	android:name
		ADDED from C:\Users\Mvrpk\Desktop\UnityToAndroidd\HomePageTrial4\HomePageTrial4\src\main\AndroidManifest.xml:26:17-60
uses-feature#android.hardware.touchscreen.multitouch
ADDED from C:\Users\Mvrpk\Desktop\UnityToAndroidd\HomePageTrial4\HomePageTrial4\src\main\AndroidManifest.xml:27:3-99
	android:required
		ADDED from C:\Users\Mvrpk\Desktop\UnityToAndroidd\HomePageTrial4\HomePageTrial4\src\main\AndroidManifest.xml:27:72-96
	android:name
		ADDED from C:\Users\Mvrpk\Desktop\UnityToAndroidd\HomePageTrial4\HomePageTrial4\src\main\AndroidManifest.xml:27:17-71
uses-feature#android.hardware.touchscreen.multitouch.distinct
ADDED from C:\Users\Mvrpk\Desktop\UnityToAndroidd\HomePageTrial4\HomePageTrial4\src\main\AndroidManifest.xml:28:3-108
	android:required
		ADDED from C:\Users\Mvrpk\Desktop\UnityToAndroidd\HomePageTrial4\HomePageTrial4\src\main\AndroidManifest.xml:28:81-105
	android:name
		ADDED from C:\Users\Mvrpk\Desktop\UnityToAndroidd\HomePageTrial4\HomePageTrial4\src\main\AndroidManifest.xml:28:17-80
uses-sdk
INJECTED from C:\Users\Mvrpk\Desktop\UnityToAndroidd\HomePageTrial4\HomePageTrial4\src\main\AndroidManifest.xml reason: use-sdk injection requested
INJECTED from C:\Users\Mvrpk\Desktop\UnityToAndroidd\HomePageTrial4\HomePageTrial4\src\main\AndroidManifest.xml
INJECTED from C:\Users\Mvrpk\Desktop\UnityToAndroidd\HomePageTrial4\HomePageTrial4\src\main\AndroidManifest.xml
INJECTED from C:\Users\Mvrpk\Desktop\UnityToAndroidd\HomePageTrial4\HomePageTrial4\src\main\AndroidManifest.xml
INJECTED from C:\Users\Mvrpk\Desktop\UnityToAndroidd\HomePageTrial4\HomePageTrial4\src\main\AndroidManifest.xml
	android:targetSdkVersion
		INJECTED from C:\Users\Mvrpk\Desktop\UnityToAndroidd\HomePageTrial4\HomePageTrial4\src\main\AndroidManifest.xml
		ADDED from C:\Users\Mvrpk\Desktop\UnityToAndroidd\HomePageTrial4\HomePageTrial4\src\main\AndroidManifest.xml
		INJECTED from C:\Users\Mvrpk\Desktop\UnityToAndroidd\HomePageTrial4\HomePageTrial4\src\main\AndroidManifest.xml
	android:minSdkVersion
		INJECTED from C:\Users\Mvrpk\Desktop\UnityToAndroidd\HomePageTrial4\HomePageTrial4\src\main\AndroidManifest.xml
		ADDED from C:\Users\Mvrpk\Desktop\UnityToAndroidd\HomePageTrial4\HomePageTrial4\src\main\AndroidManifest.xml
		INJECTED from C:\Users\Mvrpk\Desktop\UnityToAndroidd\HomePageTrial4\HomePageTrial4\src\main\AndroidManifest.xml
